%YAML 1.1
%TAG !u! tag:unity3d.com,2011:
--- !u!1 &3779813446802957595
GameObject:
  m_ObjectHideFlags: 0
  m_CorrespondingSourceObject: {fileID: 0}
  m_PrefabInstance: {fileID: 0}
  m_PrefabAsset: {fileID: 0}
  serializedVersion: 6
  m_Component:
  - component: {fileID: 3779813446802957592}
  - component: {fileID: 3779813446802957597}
  - component: {fileID: 3779813446802957596}
  - component: {fileID: 3779813446802957599}
  - component: {fileID: 3779813446802957598}
  - component: {fileID: 3779813446802957593}
  m_Layer: 0
  m_Name: Top
  m_TagString: Untagged
  m_Icon: {fileID: 0}
  m_NavMeshLayer: 0
  m_StaticEditorFlags: 0
  m_IsActive: 1
--- !u!4 &3779813446802957592
Transform:
  m_ObjectHideFlags: 0
  m_CorrespondingSourceObject: {fileID: 0}
  m_PrefabInstance: {fileID: 0}
  m_PrefabAsset: {fileID: 0}
  m_GameObject: {fileID: 3779813446802957595}
  m_LocalRotation: {x: 0, y: 0, z: 0, w: 1}
  m_LocalPosition: {x: 0, y: 0, z: 0}
  m_LocalScale: {x: 1, y: 1, z: 1}
  m_ConstrainProportionsScale: 0
  m_Children: []
  m_Father: {fileID: 3779813447019597990}
  m_RootOrder: 0
  m_LocalEulerAnglesHint: {x: 0, y: 0, z: 0}
--- !u!114 &3779813446802957597
MonoBehaviour:
  m_ObjectHideFlags: 0
  m_CorrespondingSourceObject: {fileID: 0}
  m_PrefabInstance: {fileID: 0}
  m_PrefabAsset: {fileID: 0}
  m_GameObject: {fileID: 3779813446802957595}
  m_Enabled: 1
  m_EditorHideFlags: 0
  m_Script: {fileID: 11500000, guid: 8233d90336aea43098adf6dbabd606a2, type: 3}
  m_Name: 
  m_EditorClassIdentifier: 
  m_MeshFormatVersion: 2
  m_Faces:
  - m_Indexes: 000000000100000002000000010000000300000002000000
    m_SmoothingGroup: 0
    m_Uv:
      m_UseWorldSpace: 0
      m_FlipU: 0
      m_FlipV: 0
      m_SwapUV: 0
      m_Fill: 1
      m_Scale: {x: 1, y: 1}
      m_Offset: {x: 0, y: 0}
      m_Rotation: 0
      m_Anchor: 9
    m_Material: {fileID: 0}
    m_SubmeshIndex: 0
    m_ManualUV: 0
    elementGroup: -1
    m_TextureGroup: -1
  - m_Indexes: 040000000500000006000000050000000700000006000000
    m_SmoothingGroup: 0
    m_Uv:
      m_UseWorldSpace: 0
      m_FlipU: 0
      m_FlipV: 0
      m_SwapUV: 0
      m_Fill: 1
      m_Scale: {x: 1, y: 1}
      m_Offset: {x: 0, y: 0}
      m_Rotation: 0
      m_Anchor: 9
    m_Material: {fileID: 0}
    m_SubmeshIndex: 0
    m_ManualUV: 0
    elementGroup: -1
    m_TextureGroup: -1
  - m_Indexes: 08000000090000000a000000090000000b0000000a000000
    m_SmoothingGroup: 0
    m_Uv:
      m_UseWorldSpace: 0
      m_FlipU: 0
      m_FlipV: 0
      m_SwapUV: 0
      m_Fill: 1
      m_Scale: {x: 1, y: 1}
      m_Offset: {x: 0, y: 0}
      m_Rotation: 0
      m_Anchor: 9
    m_Material: {fileID: 0}
    m_SubmeshIndex: 0
    m_ManualUV: 0
    elementGroup: -1
    m_TextureGroup: -1
  - m_Indexes: 0c0000000d0000000e0000000d0000000f0000000e000000
    m_SmoothingGroup: 0
    m_Uv:
      m_UseWorldSpace: 0
      m_FlipU: 0
      m_FlipV: 0
      m_SwapUV: 0
      m_Fill: 1
      m_Scale: {x: 1, y: 1}
      m_Offset: {x: 0, y: 0}
      m_Rotation: 0
      m_Anchor: 9
    m_Material: {fileID: 0}
    m_SubmeshIndex: 0
    m_ManualUV: 0
    elementGroup: -1
    m_TextureGroup: -1
  - m_Indexes: 100000001100000012000000110000001300000012000000
    m_SmoothingGroup: 0
    m_Uv:
      m_UseWorldSpace: 0
      m_FlipU: 0
      m_FlipV: 0
      m_SwapUV: 0
      m_Fill: 1
      m_Scale: {x: 1, y: 1}
      m_Offset: {x: 0, y: 0}
      m_Rotation: 0
      m_Anchor: 9
    m_Material: {fileID: 0}
    m_SubmeshIndex: 0
    m_ManualUV: 0
    elementGroup: -1
    m_TextureGroup: -1
  - m_Indexes: 140000001500000016000000150000001700000016000000
    m_SmoothingGroup: 0
    m_Uv:
      m_UseWorldSpace: 0
      m_FlipU: 0
      m_FlipV: 0
      m_SwapUV: 0
      m_Fill: 1
      m_Scale: {x: 1, y: 1}
      m_Offset: {x: 0, y: 0}
      m_Rotation: 0
      m_Anchor: 9
    m_Material: {fileID: 0}
    m_SubmeshIndex: 0
    m_ManualUV: 0
    elementGroup: -1
    m_TextureGroup: -1
  - m_Indexes: 18000000190000001a000000190000001b0000001a000000
    m_SmoothingGroup: 0
    m_Uv:
      m_UseWorldSpace: 0
      m_FlipU: 0
      m_FlipV: 0
      m_SwapUV: 0
      m_Fill: 1
      m_Scale: {x: 1, y: 1}
      m_Offset: {x: 0, y: 0}
      m_Rotation: 0
      m_Anchor: 9
    m_Material: {fileID: 0}
    m_SubmeshIndex: 0
    m_ManualUV: 0
    elementGroup: -1
    m_TextureGroup: -1
  - m_Indexes: 1c0000001d0000001e0000001d0000001f0000001e000000
    m_SmoothingGroup: 0
    m_Uv:
      m_UseWorldSpace: 0
      m_FlipU: 0
      m_FlipV: 0
      m_SwapUV: 0
      m_Fill: 1
      m_Scale: {x: 1, y: 1}
      m_Offset: {x: 0, y: 0}
      m_Rotation: 0
      m_Anchor: 9
    m_Material: {fileID: 0}
    m_SubmeshIndex: 0
    m_ManualUV: 0
    elementGroup: -1
    m_TextureGroup: -1
  - m_Indexes: 200000002100000022000000210000002300000022000000
    m_SmoothingGroup: 0
    m_Uv:
      m_UseWorldSpace: 0
      m_FlipU: 0
      m_FlipV: 0
      m_SwapUV: 0
      m_Fill: 1
      m_Scale: {x: 1, y: 1}
      m_Offset: {x: 0, y: 0}
      m_Rotation: 0
      m_Anchor: 9
    m_Material: {fileID: 0}
    m_SubmeshIndex: 0
    m_ManualUV: 0
    elementGroup: -1
    m_TextureGroup: -1
  - m_Indexes: 240000002500000026000000250000002700000026000000
    m_SmoothingGroup: 0
    m_Uv:
      m_UseWorldSpace: 0
      m_FlipU: 0
      m_FlipV: 0
      m_SwapUV: 0
      m_Fill: 1
      m_Scale: {x: 1, y: 1}
      m_Offset: {x: 0, y: 0}
      m_Rotation: 0
      m_Anchor: 9
    m_Material: {fileID: 0}
    m_SubmeshIndex: 0
    m_ManualUV: 0
    elementGroup: -1
    m_TextureGroup: -1
  - m_Indexes: 28000000290000002a000000290000002b0000002a000000
    m_SmoothingGroup: 0
    m_Uv:
      m_UseWorldSpace: 0
      m_FlipU: 0
      m_FlipV: 0
      m_SwapUV: 0
      m_Fill: 1
      m_Scale: {x: 1, y: 1}
      m_Offset: {x: 0, y: 0}
      m_Rotation: 0
      m_Anchor: 9
    m_Material: {fileID: 0}
    m_SubmeshIndex: 0
    m_ManualUV: 0
    elementGroup: -1
    m_TextureGroup: -1
  - m_Indexes: 2c0000002d0000002e0000002d0000002f0000002e000000
    m_SmoothingGroup: 0
    m_Uv:
      m_UseWorldSpace: 0
      m_FlipU: 0
      m_FlipV: 0
      m_SwapUV: 0
      m_Fill: 1
      m_Scale: {x: 1, y: 1}
      m_Offset: {x: 0, y: 0}
      m_Rotation: 0
      m_Anchor: 9
    m_Material: {fileID: 0}
    m_SubmeshIndex: 0
    m_ManualUV: 0
    elementGroup: -1
    m_TextureGroup: -1
  - m_Indexes: 300000003100000032000000310000003300000032000000
    m_SmoothingGroup: 0
    m_Uv:
      m_UseWorldSpace: 0
      m_FlipU: 0
      m_FlipV: 0
      m_SwapUV: 0
      m_Fill: 1
      m_Scale: {x: 1, y: 1}
      m_Offset: {x: 0, y: 0}
      m_Rotation: 0
      m_Anchor: 9
    m_Material: {fileID: 0}
    m_SubmeshIndex: 0
    m_ManualUV: 0
    elementGroup: -1
    m_TextureGroup: -1
  - m_Indexes: 340000003500000036000000350000003700000036000000
    m_SmoothingGroup: 0
    m_Uv:
      m_UseWorldSpace: 0
      m_FlipU: 0
      m_FlipV: 0
      m_SwapUV: 0
      m_Fill: 1
      m_Scale: {x: 1, y: 1}
      m_Offset: {x: 0, y: 0}
      m_Rotation: 0
      m_Anchor: 9
    m_Material: {fileID: 0}
    m_SubmeshIndex: 0
    m_ManualUV: 0
    elementGroup: -1
    m_TextureGroup: -1
  - m_Indexes: 38000000390000003a000000390000003b0000003a000000
    m_SmoothingGroup: 0
    m_Uv:
      m_UseWorldSpace: 0
      m_FlipU: 0
      m_FlipV: 0
      m_SwapUV: 0
      m_Fill: 1
      m_Scale: {x: 1, y: 1}
      m_Offset: {x: 0, y: 0}
      m_Rotation: 0
      m_Anchor: 9
    m_Material: {fileID: 0}
    m_SubmeshIndex: 0
    m_ManualUV: 0
    elementGroup: -1
    m_TextureGroup: -1
  - m_Indexes: 3c0000003d0000003e0000003d0000003f0000003e000000
    m_SmoothingGroup: 0
    m_Uv:
      m_UseWorldSpace: 0
      m_FlipU: 0
      m_FlipV: 0
      m_SwapUV: 0
      m_Fill: 1
      m_Scale: {x: 1, y: 1}
      m_Offset: {x: 0, y: 0}
      m_Rotation: 0
      m_Anchor: 9
    m_Material: {fileID: 0}
    m_SubmeshIndex: 0
    m_ManualUV: 0
    elementGroup: -1
    m_TextureGroup: -1
  - m_Indexes: 400000004100000042000000410000004300000042000000
    m_SmoothingGroup: 0
    m_Uv:
      m_UseWorldSpace: 0
      m_FlipU: 0
      m_FlipV: 0
      m_SwapUV: 0
      m_Fill: 1
      m_Scale: {x: 1, y: 1}
      m_Offset: {x: 0, y: 0}
      m_Rotation: 0
      m_Anchor: 9
    m_Material: {fileID: 0}
    m_SubmeshIndex: 0
    m_ManualUV: 0
    elementGroup: -1
    m_TextureGroup: -1
  - m_Indexes: 440000004500000046000000450000004700000046000000
    m_SmoothingGroup: 0
    m_Uv:
      m_UseWorldSpace: 0
      m_FlipU: 0
      m_FlipV: 0
      m_SwapUV: 0
      m_Fill: 1
      m_Scale: {x: 1, y: 1}
      m_Offset: {x: 0, y: 0}
      m_Rotation: 0
      m_Anchor: 9
    m_Material: {fileID: 0}
    m_SubmeshIndex: 0
    m_ManualUV: 0
    elementGroup: -1
    m_TextureGroup: -1
  - m_Indexes: 48000000490000004a000000490000004b0000004a000000
    m_SmoothingGroup: 0
    m_Uv:
      m_UseWorldSpace: 0
      m_FlipU: 0
      m_FlipV: 0
      m_SwapUV: 0
      m_Fill: 1
      m_Scale: {x: 1, y: 1}
      m_Offset: {x: 0, y: 0}
      m_Rotation: 0
      m_Anchor: 9
    m_Material: {fileID: 0}
    m_SubmeshIndex: 0
    m_ManualUV: 0
    elementGroup: -1
    m_TextureGroup: -1
  - m_Indexes: 4c0000004d0000004e0000004d0000004f0000004e000000
    m_SmoothingGroup: 0
    m_Uv:
      m_UseWorldSpace: 0
      m_FlipU: 0
      m_FlipV: 0
      m_SwapUV: 0
      m_Fill: 1
      m_Scale: {x: 1, y: 1}
      m_Offset: {x: 0, y: 0}
      m_Rotation: 0
      m_Anchor: 9
    m_Material: {fileID: 0}
    m_SubmeshIndex: 0
    m_ManualUV: 0
    elementGroup: -1
    m_TextureGroup: -1
  - m_Indexes: 500000005100000052000000510000005300000052000000
    m_SmoothingGroup: 0
    m_Uv:
      m_UseWorldSpace: 0
      m_FlipU: 0
      m_FlipV: 0
      m_SwapUV: 0
      m_Fill: 1
      m_Scale: {x: 1, y: 1}
      m_Offset: {x: 0, y: 0}
      m_Rotation: 0
      m_Anchor: 9
    m_Material: {fileID: 0}
    m_SubmeshIndex: 0
    m_ManualUV: 0
    elementGroup: -1
    m_TextureGroup: -1
  - m_Indexes: 540000005500000056000000550000005700000056000000
    m_SmoothingGroup: 0
    m_Uv:
      m_UseWorldSpace: 0
      m_FlipU: 0
      m_FlipV: 0
      m_SwapUV: 0
      m_Fill: 1
      m_Scale: {x: 1, y: 1}
      m_Offset: {x: 0, y: 0}
      m_Rotation: 0
      m_Anchor: 9
    m_Material: {fileID: 0}
    m_SubmeshIndex: 0
    m_ManualUV: 0
    elementGroup: -1
    m_TextureGroup: -1
  - m_Indexes: 58000000590000005a000000590000005b0000005a000000
    m_SmoothingGroup: 0
    m_Uv:
      m_UseWorldSpace: 0
      m_FlipU: 0
      m_FlipV: 0
      m_SwapUV: 0
      m_Fill: 1
      m_Scale: {x: 1, y: 1}
      m_Offset: {x: 0, y: 0}
      m_Rotation: 0
      m_Anchor: 9
    m_Material: {fileID: 0}
    m_SubmeshIndex: 0
    m_ManualUV: 0
    elementGroup: -1
    m_TextureGroup: -1
  - m_Indexes: 5c0000005d0000005e0000005d0000005f0000005e000000
    m_SmoothingGroup: 0
    m_Uv:
      m_UseWorldSpace: 0
      m_FlipU: 0
      m_FlipV: 0
      m_SwapUV: 0
      m_Fill: 1
      m_Scale: {x: 1, y: 1}
      m_Offset: {x: 0, y: 0}
      m_Rotation: 0
      m_Anchor: 9
    m_Material: {fileID: 0}
    m_SubmeshIndex: 0
    m_ManualUV: 0
    elementGroup: -1
    m_TextureGroup: -1
  - m_Indexes: 600000006100000062000000610000006300000062000000
    m_SmoothingGroup: 0
    m_Uv:
      m_UseWorldSpace: 0
      m_FlipU: 0
      m_FlipV: 0
      m_SwapUV: 0
      m_Fill: 1
      m_Scale: {x: 1, y: 1}
      m_Offset: {x: 0, y: 0}
      m_Rotation: 0
      m_Anchor: 9
    m_Material: {fileID: 0}
    m_SubmeshIndex: 0
    m_ManualUV: 0
    elementGroup: -1
    m_TextureGroup: -1
  - m_Indexes: 640000006500000066000000650000006700000066000000
    m_SmoothingGroup: 0
    m_Uv:
      m_UseWorldSpace: 0
      m_FlipU: 0
      m_FlipV: 0
      m_SwapUV: 0
      m_Fill: 1
      m_Scale: {x: 1, y: 1}
      m_Offset: {x: 0, y: 0}
      m_Rotation: 0
      m_Anchor: 9
    m_Material: {fileID: 0}
    m_SubmeshIndex: 0
    m_ManualUV: 0
    elementGroup: -1
    m_TextureGroup: -1
  - m_Indexes: 68000000690000006a000000690000006b0000006a000000
    m_SmoothingGroup: 0
    m_Uv:
      m_UseWorldSpace: 0
      m_FlipU: 0
      m_FlipV: 0
      m_SwapUV: 0
      m_Fill: 1
      m_Scale: {x: 1, y: 1}
      m_Offset: {x: 0, y: 0}
      m_Rotation: 0
      m_Anchor: 9
    m_Material: {fileID: 0}
    m_SubmeshIndex: 0
    m_ManualUV: 0
    elementGroup: -1
    m_TextureGroup: -1
  - m_Indexes: 6c0000006d0000006e0000006d0000006f0000006e000000
    m_SmoothingGroup: 0
    m_Uv:
      m_UseWorldSpace: 0
      m_FlipU: 0
      m_FlipV: 0
      m_SwapUV: 0
      m_Fill: 1
      m_Scale: {x: 1, y: 1}
      m_Offset: {x: 0, y: 0}
      m_Rotation: 0
      m_Anchor: 9
    m_Material: {fileID: 0}
    m_SubmeshIndex: 0
    m_ManualUV: 0
    elementGroup: -1
    m_TextureGroup: -1
  - m_Indexes: 700000007100000072000000710000007300000072000000
    m_SmoothingGroup: 0
    m_Uv:
      m_UseWorldSpace: 0
      m_FlipU: 0
      m_FlipV: 0
      m_SwapUV: 0
      m_Fill: 1
      m_Scale: {x: 1, y: 1}
      m_Offset: {x: 0, y: 0}
      m_Rotation: 0
      m_Anchor: 9
    m_Material: {fileID: 0}
    m_SubmeshIndex: 0
    m_ManualUV: 0
    elementGroup: -1
    m_TextureGroup: -1
  - m_Indexes: 740000007500000076000000750000007700000076000000
    m_SmoothingGroup: 0
    m_Uv:
      m_UseWorldSpace: 0
      m_FlipU: 0
      m_FlipV: 0
      m_SwapUV: 0
      m_Fill: 1
      m_Scale: {x: 1, y: 1}
      m_Offset: {x: 0, y: 0}
      m_Rotation: 0
      m_Anchor: 9
    m_Material: {fileID: 0}
    m_SubmeshIndex: 0
    m_ManualUV: 0
    elementGroup: -1
    m_TextureGroup: -1
  - m_Indexes: 78000000790000007a000000790000007b0000007a000000
    m_SmoothingGroup: 0
    m_Uv:
      m_UseWorldSpace: 0
      m_FlipU: 0
      m_FlipV: 0
      m_SwapUV: 0
      m_Fill: 1
      m_Scale: {x: 1, y: 1}
      m_Offset: {x: 0, y: 0}
      m_Rotation: 0
      m_Anchor: 9
    m_Material: {fileID: 0}
    m_SubmeshIndex: 0
    m_ManualUV: 0
    elementGroup: -1
    m_TextureGroup: -1
  - m_Indexes: 7c0000007d0000007e0000007d0000007f0000007e000000
    m_SmoothingGroup: 0
    m_Uv:
      m_UseWorldSpace: 0
      m_FlipU: 0
      m_FlipV: 0
      m_SwapUV: 0
      m_Fill: 1
      m_Scale: {x: 1, y: 1}
      m_Offset: {x: 0, y: 0}
      m_Rotation: 0
      m_Anchor: 9
    m_Material: {fileID: 0}
    m_SubmeshIndex: 0
    m_ManualUV: 0
    elementGroup: -1
    m_TextureGroup: -1
  - m_Indexes: 800000008100000082000000810000008300000082000000
    m_SmoothingGroup: 0
    m_Uv:
      m_UseWorldSpace: 0
      m_FlipU: 0
      m_FlipV: 0
      m_SwapUV: 0
      m_Fill: 1
      m_Scale: {x: 1, y: 1}
      m_Offset: {x: 0, y: 0}
      m_Rotation: 0
      m_Anchor: 9
    m_Material: {fileID: 0}
    m_SubmeshIndex: 0
    m_ManualUV: 0
    elementGroup: -1
    m_TextureGroup: -1
  - m_Indexes: 840000008500000086000000850000008700000086000000
    m_SmoothingGroup: 0
    m_Uv:
      m_UseWorldSpace: 0
      m_FlipU: 0
      m_FlipV: 0
      m_SwapUV: 0
      m_Fill: 1
      m_Scale: {x: 1, y: 1}
      m_Offset: {x: 0, y: 0}
      m_Rotation: 0
      m_Anchor: 9
    m_Material: {fileID: 0}
    m_SubmeshIndex: 0
    m_ManualUV: 0
    elementGroup: -1
    m_TextureGroup: -1
  - m_Indexes: 88000000890000008a000000890000008b0000008a000000
    m_SmoothingGroup: 0
    m_Uv:
      m_UseWorldSpace: 0
      m_FlipU: 0
      m_FlipV: 0
      m_SwapUV: 0
      m_Fill: 1
      m_Scale: {x: 1, y: 1}
      m_Offset: {x: 0, y: 0}
      m_Rotation: 0
      m_Anchor: 9
    m_Material: {fileID: 0}
    m_SubmeshIndex: 0
    m_ManualUV: 0
    elementGroup: -1
    m_TextureGroup: -1
  - m_Indexes: 8c0000008d0000008e0000008d0000008f0000008e000000
    m_SmoothingGroup: 0
    m_Uv:
      m_UseWorldSpace: 0
      m_FlipU: 0
      m_FlipV: 0
      m_SwapUV: 0
      m_Fill: 1
      m_Scale: {x: 1, y: 1}
      m_Offset: {x: 0, y: 0}
      m_Rotation: 0
      m_Anchor: 9
    m_Material: {fileID: 0}
    m_SubmeshIndex: 0
    m_ManualUV: 0
    elementGroup: -1
    m_TextureGroup: -1
  - m_Indexes: 900000009100000092000000910000009300000092000000
    m_SmoothingGroup: 0
    m_Uv:
      m_UseWorldSpace: 0
      m_FlipU: 0
      m_FlipV: 0
      m_SwapUV: 0
      m_Fill: 1
      m_Scale: {x: 1, y: 1}
      m_Offset: {x: 0, y: 0}
      m_Rotation: 0
      m_Anchor: 9
    m_Material: {fileID: 0}
    m_SubmeshIndex: 0
    m_ManualUV: 0
    elementGroup: -1
    m_TextureGroup: -1
  - m_Indexes: 940000009500000096000000950000009700000096000000
    m_SmoothingGroup: 0
    m_Uv:
      m_UseWorldSpace: 0
      m_FlipU: 0
      m_FlipV: 0
      m_SwapUV: 0
      m_Fill: 1
      m_Scale: {x: 1, y: 1}
      m_Offset: {x: 0, y: 0}
      m_Rotation: 0
      m_Anchor: 9
    m_Material: {fileID: 0}
    m_SubmeshIndex: 0
    m_ManualUV: 0
    elementGroup: -1
    m_TextureGroup: -1
  m_SharedVertices:
  - m_Vertices: 000000000d0000005c00000065000000
  - m_Vertices: 160000008e00000097000000
  - m_Vertices: 7e000000870000008c00000095000000
  - m_Vertices: 6e000000770000007c00000085000000
  - m_Vertices: 5e000000670000006c00000075000000
  - m_Vertices: 01000000040000006100000064000000
  - m_Vertices: 170000009300000096000000
  - m_Vertices: 83000000860000009100000094000000
  - m_Vertices: 73000000760000008100000084000000
  - m_Vertices: 63000000660000007100000074000000
  - m_Vertices: 020000000f000000180000001d000000
  - m_Vertices: 100000004a0000004f000000
  - m_Vertices: 3a0000003f000000480000004d000000
  - m_Vertices: 2a0000002f000000380000003d000000
  - m_Vertices: 1a0000001f000000280000002d000000
  - m_Vertices: 03000000060000001900000020000000
  - m_Vertices: 110000004b00000052000000
  - m_Vertices: 3b000000420000004900000050000000
  - m_Vertices: 2b000000320000003900000040000000
  - m_Vertices: 1b000000220000002900000030000000
  - m_Vertices: 05000000080000005900000060000000
  - m_Vertices: 150000008b00000092000000
  - m_Vertices: 7b000000820000008900000090000000
  - m_Vertices: 6b000000720000007900000080000000
  - m_Vertices: 5b000000620000006900000070000000
  - m_Vertices: 070000000a0000002100000024000000
  - m_Vertices: 130000005300000056000000
  - m_Vertices: 43000000460000005100000054000000
  - m_Vertices: 33000000360000004100000044000000
  - m_Vertices: 23000000260000003100000034000000
  - m_Vertices: 090000000c000000580000005d000000
  - m_Vertices: 140000008a0000008f000000
  - m_Vertices: 7a0000007f000000880000008d000000
  - m_Vertices: 6a0000006f000000780000007d000000
  - m_Vertices: 5a0000005f000000680000006d000000
  - m_Vertices: 0b0000000e0000001c00000025000000
  - m_Vertices: 120000004e00000057000000
  - m_Vertices: 3e000000470000004c00000055000000
  - m_Vertices: 2e000000370000003c00000045000000
  - m_Vertices: 1e000000270000002c00000035000000
  m_SharedTextures: []
  m_Positions:
  - {x: -2, y: 0, z: 1}
  - {x: 0, y: 0, z: 1}
  - {x: -2, y: 0.18753994, z: 0.8179394}
  - {x: 0, y: 0.18753994, z: 0.8179394}
  - {x: 0, y: 0, z: 1}
  - {x: 0, y: 0, z: 0}
  - {x: 0, y: 0.18753994, z: 0.8179394}
  - {x: 0, y: 0.18753994, z: 0.1820606}
  - {x: 0, y: 0, z: 0}
  - {x: -2, y: 0, z: 0}
  - {x: 0, y: 0.18753994, z: 0.1820606}
  - {x: -2, y: 0.18753994, z: 0.1820606}
  - {x: -2, y: 0, z: 0}
  - {x: -2, y: 0, z: 1}
  - {x: -2, y: 0.18753994, z: 0.1820606}
  - {x: -2, y: 0.18753994, z: 0.8179394}
  - {x: -2, y: 0.40355074, z: 0.50006914}
  - {x: 0, y: 0.40355074, z: 0.50006914}
  - {x: -2, y: 0.40355074, z: 0.4999309}
  - {x: 0, y: 0.40355074, z: 0.4999309}
  - {x: -1.8522731, y: 0.15203351, z: 0.15621564}
  - {x: -0.1477269, y: 0.15203351, z: 0.15621564}
  - {x: -1.8522731, y: 0.15203334, z: 0.84378606}
  - {x: -0.1477269, y: 0.15203334, z: 0.84378606}
  - {x: -2, y: 0.18753994, z: 0.8179394}
  - {x: 0, y: 0.18753994, z: 0.8179394}
  - {x: -2, y: 0.25104117, z: 0.74498063}
  - {x: 0, y: 0.25104117, z: 0.74498063}
  - {x: -2, y: 0.18753994, z: 0.1820606}
  - {x: -2, y: 0.18753994, z: 0.8179394}
  - {x: -2, y: 0.25104117, z: 0.25501937}
  - {x: -2, y: 0.25104117, z: 0.74498063}
  - {x: 0, y: 0.18753994, z: 0.8179394}
  - {x: 0, y: 0.18753994, z: 0.1820606}
  - {x: 0, y: 0.25104117, z: 0.74498063}
  - {x: 0, y: 0.25104117, z: 0.25501937}
  - {x: 0, y: 0.18753994, z: 0.1820606}
  - {x: -2, y: 0.18753994, z: 0.1820606}
  - {x: 0, y: 0.25104117, z: 0.25501937}
  - {x: -2, y: 0.25104117, z: 0.25501937}
  - {x: -2, y: 0.25104117, z: 0.74498063}
  - {x: 0, y: 0.25104117, z: 0.74498063}
  - {x: -2, y: 0.32202458, z: 0.6560793}
  - {x: 0, y: 0.32202458, z: 0.6560793}
  - {x: -2, y: 0.25104117, z: 0.25501937}
  - {x: -2, y: 0.25104117, z: 0.74498063}
  - {x: -2, y: 0.32202458, z: 0.34392068}
  - {x: -2, y: 0.32202458, z: 0.6560793}
  - {x: 0, y: 0.25104117, z: 0.74498063}
  - {x: 0, y: 0.25104117, z: 0.25501937}
  - {x: 0, y: 0.32202458, z: 0.6560793}
  - {x: 0, y: 0.32202458, z: 0.34392068}
  - {x: 0, y: 0.25104117, z: 0.25501937}
  - {x: -2, y: 0.25104117, z: 0.25501937}
  - {x: 0, y: 0.32202458, z: 0.34392068}
  - {x: -2, y: 0.32202458, z: 0.34392068}
  - {x: -2, y: 0.32202458, z: 0.6560793}
  - {x: 0, y: 0.32202458, z: 0.6560793}
  - {x: -2, y: 0.36266255, z: 0.5461172}
  - {x: 0, y: 0.36266255, z: 0.5461172}
  - {x: -2, y: 0.32202458, z: 0.34392068}
  - {x: -2, y: 0.32202458, z: 0.6560793}
  - {x: -2, y: 0.36266255, z: 0.45388278}
  - {x: -2, y: 0.36266255, z: 0.5461172}
  - {x: 0, y: 0.32202458, z: 0.6560793}
  - {x: 0, y: 0.32202458, z: 0.34392068}
  - {x: 0, y: 0.36266255, z: 0.5461172}
  - {x: 0, y: 0.36266255, z: 0.45388278}
  - {x: 0, y: 0.32202458, z: 0.34392068}
  - {x: -2, y: 0.32202458, z: 0.34392068}
  - {x: 0, y: 0.36266255, z: 0.45388278}
  - {x: -2, y: 0.36266255, z: 0.45388278}
  - {x: -2, y: 0.36266255, z: 0.5461172}
  - {x: 0, y: 0.36266255, z: 0.5461172}
  - {x: -2, y: 0.40355074, z: 0.50006914}
  - {x: 0, y: 0.40355074, z: 0.50006914}
  - {x: -2, y: 0.36266255, z: 0.45388278}
  - {x: -2, y: 0.36266255, z: 0.5461172}
  - {x: -2, y: 0.40355074, z: 0.4999309}
  - {x: -2, y: 0.40355074, z: 0.50006914}
  - {x: 0, y: 0.36266255, z: 0.5461172}
  - {x: 0, y: 0.36266255, z: 0.45388278}
  - {x: 0, y: 0.40355074, z: 0.50006914}
  - {x: 0, y: 0.40355074, z: 0.4999309}
  - {x: 0, y: 0.36266255, z: 0.45388278}
  - {x: -2, y: 0.36266255, z: 0.45388278}
  - {x: 0, y: 0.40355074, z: 0.4999309}
  - {x: -2, y: 0.40355074, z: 0.4999309}
  - {x: -2, y: 0, z: 0}
  - {x: 0, y: 0, z: 0}
  - {x: -1.9240853, y: 0.00000007943553, z: 0.0829149}
  - {x: -0.07591474, y: 0.00000007943553, z: 0.0829149}
  - {x: -2, y: 0, z: 1}
  - {x: -2, y: 0, z: 0}
  - {x: -1.9240853, y: -0.000000034457262, z: 0.9170858}
  - {x: -1.9240853, y: 0.00000007943553, z: 0.0829149}
  - {x: 0, y: 0, z: 0}
  - {x: 0, y: 0, z: 1}
  - {x: -0.07591474, y: 0.00000007943553, z: 0.0829149}
  - {x: -0.07591474, y: -0.000000034457262, z: 0.9170858}
  - {x: 0, y: 0, z: 1}
  - {x: -2, y: 0, z: 1}
  - {x: -0.07591474, y: -0.000000034457262, z: 0.9170858}
  - {x: -1.9240853, y: -0.000000034457262, z: 0.9170858}
  - {x: -1.9240853, y: 0.00000007943553, z: 0.0829149}
  - {x: -0.07591474, y: 0.00000007943553, z: 0.0829149}
  - {x: -1.9240853, y: 0.064688966, z: 0.082915}
  - {x: -0.07591474, y: 0.064688966, z: 0.082915}
  - {x: -1.9240853, y: -0.000000034457262, z: 0.9170858}
  - {x: -1.9240853, y: 0.00000007943553, z: 0.0829149}
  - {x: -1.9240853, y: 0.064688824, z: 0.9170859}
  - {x: -1.9240853, y: 0.064688966, z: 0.082915}
  - {x: -0.07591474, y: 0.00000007943553, z: 0.0829149}
  - {x: -0.07591474, y: -0.000000034457262, z: 0.9170858}
  - {x: -0.07591474, y: 0.064688966, z: 0.082915}
  - {x: -0.07591474, y: 0.064688824, z: 0.9170859}
  - {x: -0.07591474, y: -0.000000034457262, z: 0.9170858}
  - {x: -1.9240853, y: -0.000000034457262, z: 0.9170858}
  - {x: -0.07591474, y: 0.064688824, z: 0.9170859}
  - {x: -1.9240853, y: 0.064688824, z: 0.9170859}
  - {x: -1.9240853, y: 0.064688966, z: 0.082915}
  - {x: -0.07591474, y: 0.064688966, z: 0.082915}
  - {x: -1.8522731, y: 0.064689, z: 0.15621541}
  - {x: -0.1477269, y: 0.064689, z: 0.15621541}
  - {x: -1.9240853, y: 0.064688824, z: 0.9170859}
  - {x: -1.9240853, y: 0.064688966, z: 0.082915}
  - {x: -1.8522731, y: 0.06468884, z: 0.8437858}
  - {x: -1.8522731, y: 0.064689, z: 0.15621541}
  - {x: -0.07591474, y: 0.064688966, z: 0.082915}
  - {x: -0.07591474, y: 0.064688824, z: 0.9170859}
  - {x: -0.1477269, y: 0.064689, z: 0.15621541}
  - {x: -0.1477269, y: 0.06468884, z: 0.8437858}
  - {x: -0.07591474, y: 0.064688824, z: 0.9170859}
  - {x: -1.9240853, y: 0.064688824, z: 0.9170859}
  - {x: -0.1477269, y: 0.06468884, z: 0.8437858}
  - {x: -1.8522731, y: 0.06468884, z: 0.8437858}
  - {x: -1.8522731, y: 0.064689, z: 0.15621541}
  - {x: -0.1477269, y: 0.064689, z: 0.15621541}
  - {x: -1.8522731, y: 0.15203351, z: 0.15621564}
  - {x: -0.1477269, y: 0.15203351, z: 0.15621564}
  - {x: -1.8522731, y: 0.06468884, z: 0.8437858}
  - {x: -1.8522731, y: 0.064689, z: 0.15621541}
  - {x: -1.8522731, y: 0.15203334, z: 0.84378606}
  - {x: -1.8522731, y: 0.15203351, z: 0.15621564}
  - {x: -0.1477269, y: 0.064689, z: 0.15621541}
  - {x: -0.1477269, y: 0.06468884, z: 0.8437858}
  - {x: -0.1477269, y: 0.15203351, z: 0.15621564}
  - {x: -0.1477269, y: 0.15203334, z: 0.84378606}
  - {x: -0.1477269, y: 0.06468884, z: 0.8437858}
  - {x: -1.8522731, y: 0.06468884, z: 0.8437858}
  - {x: -0.1477269, y: 0.15203334, z: 0.84378606}
  - {x: -1.8522731, y: 0.15203334, z: 0.84378606}
  m_Textures0:
  - {x: 2, y: -0.6965474}
  - {x: 0, y: -0.6965474}
  - {x: 2, y: -0.43517163}
  - {x: 0, y: -0.43517163}
  - {x: 1, y: 0}
  - {x: 0, y: 0}
  - {x: 0.8179394, y: 0.18753994}
  - {x: 0.1820606, y: 0.18753994}
  - {x: 0, y: 0}
  - {x: -2, y: 0}
  - {x: 0, y: 0.26137576}
  - {x: -2, y: 0.26137576}
  - {x: 0, y: 0}
  - {x: -1, y: 0}
  - {x: -0.1820606, y: 0.18753994}
  - {x: -0.8179394, y: 0.18753994}
  - {x: -2, y: 0.50006914}
  - {x: 0, y: 0.50006914}
  - {x: -2, y: 0.4999309}
  - {x: 0, y: 0.4999309}
  - {x: 1.8522731, y: 0.15621561}
  - {x: 0.1477269, y: 0.15621561}
  - {x: 1.8522731, y: 0.843786}
  - {x: 0.1477269, y: 0.843786}
  - {x: -2, y: 0.4938505}
  - {x: 0, y: 0.4938505}
  - {x: -2, y: 0.39712724}
  - {x: 0, y: 0.39712724}
  - {x: -0.1820606, y: 0.18753994}
  - {x: -0.8179394, y: 0.18753994}
  - {x: -0.25501937, y: 0.25104117}
  - {x: -0.74498063, y: 0.25104117}
  - {x: 0.8179394, y: 0.18753994}
  - {x: 0.1820606, y: 0.18753994}
  - {x: 0.74498063, y: 0.25104117}
  - {x: 0.25501937, y: 0.25104117}
  - {x: 0, y: 0.26045373}
  - {x: -2, y: 0.26045373}
  - {x: 0, y: 0.357177}
  - {x: -2, y: 0.357177}
  - {x: -2, y: 0.4255328}
  - {x: 0, y: 0.4255328}
  - {x: -2, y: 0.31176946}
  - {x: 0, y: 0.31176946}
  - {x: -0.25501937, y: 0.25104117}
  - {x: -0.74498063, y: 0.25104117}
  - {x: -0.34392068, y: 0.32202458}
  - {x: -0.6560793, y: 0.32202458}
  - {x: 0.74498063, y: 0.25104117}
  - {x: 0.25501937, y: 0.25104117}
  - {x: 0.6560793, y: 0.32202458}
  - {x: 0.34392068, y: 0.32202458}
  - {x: 0, y: 0.355926}
  - {x: -2, y: 0.355926}
  - {x: 0, y: 0.4696893}
  - {x: -2, y: 0.4696893}
  - {x: -2, y: 0.5037697}
  - {x: 0, y: 0.5037697}
  - {x: -2, y: 0.3865387}
  - {x: 0, y: 0.3865387}
  - {x: -0.34392068, y: 0.32202458}
  - {x: -0.6560793, y: 0.32202458}
  - {x: -0.45388278, y: 0.36266255}
  - {x: -0.5461172, y: 0.36266255}
  - {x: 0.6560793, y: 0.32202458}
  - {x: 0.34392068, y: 0.32202458}
  - {x: 0.5461172, y: 0.36266255}
  - {x: 0.45388278, y: 0.36266255}
  - {x: 0, y: 0.43422526}
  - {x: -2, y: 0.43422526}
  - {x: 0, y: 0.5514563}
  - {x: -2, y: 0.5514563}
  - {x: -2, y: 0.1675671}
  - {x: 0, y: 0.1675671}
  - {x: -2, y: 0.10598573}
  - {x: 0, y: 0.10598573}
  - {x: -0.45388278, y: 0.36266255}
  - {x: -0.5461172, y: 0.36266255}
  - {x: -0.4999309, y: 0.40355074}
  - {x: -0.50006914, y: 0.40355074}
  - {x: 0.5461172, y: 0.36266255}
  - {x: 0.45388278, y: 0.36266255}
  - {x: 0.50006914, y: 0.40355074}
  - {x: 0.4999309, y: 0.40355074}
  - {x: 0, y: 0.5801921}
  - {x: -2, y: 0.5801921}
  - {x: 0, y: 0.6417735}
  - {x: -2, y: 0.6417735}
  - {x: 2, y: 0}
  - {x: 0, y: 0}
  - {x: 1.9240853, y: 0.0829149}
  - {x: 0.07591474, y: 0.0829149}
  - {x: 2, y: 1}
  - {x: 2, y: 0}
  - {x: 1.9240853, y: 0.9170858}
  - {x: 1.9240853, y: 0.0829149}
  - {x: 0, y: 0}
  - {x: 0, y: 1}
  - {x: 0.07591474, y: 0.0829149}
  - {x: 0.07591474, y: 0.9170858}
  - {x: 0, y: 1}
  - {x: 2, y: 1}
  - {x: 0.07591474, y: 0.9170858}
  - {x: 1.9240853, y: 0.9170858}
  - {x: 1.9240853, y: 0.00000021313235}
  - {x: 0.07591474, y: 0.00000021313235}
  - {x: 1.9240853, y: 0.0646891}
  - {x: 0.07591474, y: 0.0646891}
  - {x: 0.9170858, y: -0.000000034457262}
  - {x: 0.0829149, y: 0.00000007943553}
  - {x: 0.9170859, y: 0.064688824}
  - {x: 0.082915, y: 0.064688966}
  - {x: -0.0829149, y: 0.00000007943553}
  - {x: -0.9170858, y: -0.000000034457262}
  - {x: -0.082915, y: 0.064688966}
  - {x: -0.9170859, y: 0.064688824}
  - {x: -0.07591474, y: 0.00000081055026}
  - {x: -1.9240853, y: 0.00000081055026}
  - {x: -0.07591474, y: 0.064689666}
  - {x: -1.9240853, y: 0.064689666}
  - {x: 1.9240853, y: 0.08291503}
  - {x: 0.07591474, y: 0.08291503}
  - {x: 1.8522731, y: 0.15621544}
  - {x: 0.1477269, y: 0.15621544}
  - {x: 1.9240853, y: 0.9170859}
  - {x: 1.9240853, y: 0.08291499}
  - {x: 1.8522731, y: 0.8437858}
  - {x: 1.8522731, y: 0.1562154}
  - {x: 0.075914785, y: 0.08291499}
  - {x: 0.075914785, y: 0.9170859}
  - {x: 0.14772694, y: 0.1562154}
  - {x: 0.14772694, y: 0.8437858}
  - {x: 0.07591474, y: 0.9170859}
  - {x: 1.9240853, y: 0.9170859}
  - {x: 0.1477269, y: 0.8437858}
  - {x: 1.8522731, y: 0.8437858}
  - {x: 1.8522731, y: 0.064689405}
  - {x: 0.1477269, y: 0.064689405}
  - {x: 1.8522731, y: 0.15203391}
  - {x: 0.1477269, y: 0.15203391}
  - {x: 0.8437858, y: 0.06468884}
  - {x: 0.15621541, y: 0.064689}
  - {x: 0.84378606, y: 0.15203334}
  - {x: 0.15621564, y: 0.15203351}
  - {x: -0.15621541, y: 0.064689}
  - {x: -0.8437858, y: 0.06468884}
  - {x: -0.15621564, y: 0.15203351}
  - {x: -0.84378606, y: 0.15203334}
  - {x: -0.1477269, y: 0.06469114}
  - {x: -1.8522731, y: 0.06469114}
  - {x: -0.1477269, y: 0.15203565}
  - {x: -1.8522731, y: 0.15203565}
  m_Textures2: []
  m_Textures3: []
  m_Tangents:
  - {x: -1, y: 0, z: 0, w: -1}
  - {x: -1, y: 0, z: 0, w: -1}
  - {x: -1, y: 0, z: 0, w: -1}
  - {x: -1, y: 0, z: 0, w: -1}
  - {x: 0, y: 0, z: 1, w: -1}
  - {x: 0, y: 0, z: 1, w: -1}
  - {x: 0, y: 0, z: 1, w: -1}
  - {x: 0, y: 0, z: 1, w: -1}
  - {x: 1, y: 0, z: 0, w: -1}
  - {x: 1, y: 0, z: 0, w: -1}
  - {x: 1, y: 0, z: 0, w: -1}
  - {x: 1, y: 0, z: 0, w: -1}
  - {x: 0, y: 0, z: -1, w: -1}
  - {x: 0, y: 0, z: -1, w: -1}
  - {x: 0, y: 0, z: -1, w: -1}
  - {x: 0, y: 0, z: -1, w: -1}
  - {x: 1, y: 0, z: 0, w: -1}
  - {x: 1, y: 0, z: 0, w: -1}
  - {x: 1, y: 0, z: 0, w: -1}
  - {x: 1, y: 0, z: 0, w: -1}
  - {x: -1, y: 0, z: 0, w: -1}
  - {x: -1, y: 0, z: 0, w: -1}
  - {x: -1, y: 0, z: 0, w: -1}
  - {x: -1, y: 0, z: 0, w: -1}
  - {x: 1, y: 0, z: 0, w: -1}
  - {x: 1, y: 0, z: 0, w: -1}
  - {x: 1, y: 0, z: 0, w: -1}
  - {x: 1, y: 0, z: 0, w: -1}
  - {x: 0, y: 0, z: -1, w: -1}
  - {x: 0, y: 0, z: -1, w: -1}
  - {x: 0, y: 0, z: -1, w: -1}
  - {x: 0, y: 0, z: -1, w: -1}
  - {x: 0, y: 0, z: 1, w: -1}
  - {x: 0, y: 0, z: 1, w: -1}
  - {x: 0, y: 0, z: 1, w: -1}
  - {x: 0, y: 0, z: 1, w: -1}
  - {x: 1, y: 0, z: 0, w: -1}
  - {x: 1, y: 0, z: 0, w: -1}
  - {x: 1, y: 0, z: 0, w: -1}
  - {x: 1, y: 0, z: 0, w: -1}
  - {x: 1, y: 0, z: 0, w: -1}
  - {x: 1, y: 0, z: 0, w: -1}
  - {x: 1, y: 0, z: 0, w: -1}
  - {x: 1, y: 0, z: 0, w: -1}
  - {x: 0, y: 0, z: -1, w: -1}
  - {x: 0, y: 0, z: -1, w: -1}
  - {x: 0, y: 0, z: -1, w: -1}
  - {x: 0, y: 0, z: -1, w: -1}
  - {x: 0, y: 0, z: 1, w: -1}
  - {x: 0, y: 0, z: 1, w: -1}
  - {x: 0, y: 0, z: 1, w: -1}
  - {x: 0, y: 0, z: 1, w: -1}
  - {x: 1, y: 0, z: 0, w: -1}
  - {x: 1, y: 0, z: 0, w: -1}
  - {x: 1, y: 0, z: 0, w: -1}
  - {x: 1, y: 0, z: 0, w: -1}
  - {x: 1, y: 0, z: 0, w: -1}
  - {x: 1, y: 0, z: 0, w: -1}
  - {x: 1, y: 0, z: 0, w: -1}
  - {x: 1, y: 0, z: 0, w: -1}
  - {x: 0, y: 0, z: -1, w: -1}
  - {x: 0, y: 0, z: -1, w: -1}
  - {x: 0, y: 0, z: -1, w: -1}
  - {x: 0, y: 0, z: -1, w: -1}
  - {x: 0, y: 0, z: 1, w: -1}
  - {x: 0, y: 0, z: 1, w: -1}
  - {x: 0, y: 0, z: 1, w: -1}
  - {x: 0, y: 0, z: 1, w: -1}
  - {x: 1, y: 0, z: 0, w: -1}
  - {x: 1, y: 0, z: 0, w: -1}
  - {x: 1, y: 0, z: 0, w: -1}
  - {x: 1, y: 0, z: 0, w: -1}
  - {x: 1, y: 0, z: 0, w: -1}
  - {x: 1, y: 0, z: 0, w: -1}
  - {x: 1, y: 0, z: 0, w: -1}
  - {x: 1, y: 0, z: 0, w: -1}
  - {x: 0, y: 0, z: -1, w: -1}
  - {x: 0, y: 0, z: -1, w: -1}
  - {x: 0, y: 0, z: -1, w: -1}
  - {x: 0, y: 0, z: -1, w: 1}
  - {x: 0, y: 0, z: 1, w: -1}
  - {x: 0, y: 0, z: 1, w: -1}
  - {x: 0, y: 0, z: 1, w: -1}
  - {x: 0, y: 0, z: 1, w: -1}
  - {x: 1, y: 0, z: 0, w: -1}
  - {x: 1, y: 0, z: 0, w: -1}
  - {x: 1, y: 0, z: 0, w: -1}
  - {x: 1, y: 0, z: 0, w: -1}
  - {x: -1, y: 0, z: 0, w: -1}
  - {x: -1, y: 0, z: 0, w: -1}
  - {x: -1, y: 0, z: 0, w: -1}
  - {x: -1, y: 0, z: 0, w: -1}
  - {x: -1, y: 0.00000045389422, z: 0, w: -1}
  - {x: -1, y: -0.000000370804, z: 0, w: -1}
  - {x: -1, y: -0.000000370804, z: 0, w: -1}
  - {x: -1, y: -0.0000011955023, z: 0, w: -1}
  - {x: -1, y: 0.0000010463782, z: 0, w: -1}
  - {x: -1, y: 0.00000022168061, z: -1.9402666e-21, w: -1}
  - {x: -1, y: 0.00000022168061, z: -1.9402666e-21, w: -1}
  - {x: -1, y: -0.000000603017, z: -7.7610665e-21, w: -1}
  - {x: -1, y: 0, z: 0, w: -1}
  - {x: -1, y: 0, z: 0, w: -1}
  - {x: -1, y: 0, z: 0, w: -1}
  - {x: -1, y: 0, z: 0, w: -1}
  - {x: -1, y: 0, z: 0, w: -1}
  - {x: -1, y: 0, z: 0, w: -1}
  - {x: -1, y: 0, z: 0, w: -1}
  - {x: -1, y: 0, z: 0, w: -1}
  - {x: 0, y: 0, z: 1, w: -1}
  - {x: 0, y: 0, z: 1, w: -1}
  - {x: 0, y: 0, z: 1, w: -1}
  - {x: 0, y: 0, z: 1, w: -1}
  - {x: 0, y: 0, z: -1, w: -1}
  - {x: 0, y: 0, z: -1, w: -1}
  - {x: 0, y: 0, z: -1, w: -1}
  - {x: 0, y: 0, z: -1, w: -1}
  - {x: 1, y: 0, z: 0, w: -1}
  - {x: 1, y: 0, z: 0, w: -1}
  - {x: 1, y: 0, z: 0, w: -1}
  - {x: 1, y: 0, z: 0, w: -1}
  - {x: -1, y: 0, z: 0, w: -1}
  - {x: -1, y: 0, z: 0, w: -1}
  - {x: -1, y: 0, z: 0, w: -1}
  - {x: -1, y: 0, z: 0, w: -1}
  - {x: -1, y: -0.00000003428311, z: 0, w: -1}
  - {x: -1, y: -0.00000039818636, z: -0.00000005740582, w: -1}
  - {x: -1, y: -0.00000039818636, z: -0.00000005740582, w: -1}
  - {x: -1, y: -0.0000007620896, z: -0.00000011481164, w: -1}
  - {x: -1, y: 0.00000069197455, z: 0.00000010375097, w: -1}
  - {x: -1, y: 0.00000032807145, z: 0.000000051875485, w: -1}
  - {x: -1, y: 0.00000032807145, z: 0.000000051875485, w: -1}
  - {x: -1, y: -0.000000035831633, z: 0, w: -1}
  - {x: -1, y: 0, z: 0, w: -1}
  - {x: -1, y: 0, z: 0, w: -1}
  - {x: -1, y: 0, z: 0, w: -1}
  - {x: -1, y: 0, z: 0, w: -1}
  - {x: -1, y: 0, z: 0, w: -1}
  - {x: -1, y: 0, z: 0, w: -1}
  - {x: -1, y: 0, z: 0, w: -1}
  - {x: -1, y: 0, z: 0, w: -1}
  - {x: 0, y: 0, z: 1, w: -1}
  - {x: 0, y: 0, z: 1, w: -1}
  - {x: 0, y: 0, z: 1, w: -1}
  - {x: 0, y: 0, z: 1, w: -1}
  - {x: 0, y: 0, z: -1, w: -1}
  - {x: 0, y: 0, z: -1, w: -1}
  - {x: 0, y: 0, z: -1, w: -1}
  - {x: 0, y: 0, z: -1, w: -1}
  - {x: 1, y: 0, z: 0, w: -1}
  - {x: 1, y: 0, z: 0, w: -1}
  - {x: 1, y: 0, z: 0, w: -1}
  - {x: 1, y: 0, z: 0, w: -1}
  m_Colors: []
  m_UnwrapParameters:
    m_HardAngle: 88
    m_PackMargin: 20
    m_AngleError: 8
    m_AreaError: 15
  m_PreserveMeshAssetOnDestroy: 0
  assetGuid: 
  m_Mesh: {fileID: 0}
  m_VersionIndex: 2072
  m_IsSelectable: 1
  m_SelectedFaces: 
  m_SelectedEdges: []
  m_SelectedVertices: 
--- !u!114 &3779813446802957596
MonoBehaviour:
  m_ObjectHideFlags: 0
  m_CorrespondingSourceObject: {fileID: 0}
  m_PrefabInstance: {fileID: 0}
  m_PrefabAsset: {fileID: 0}
  m_GameObject: {fileID: 3779813446802957595}
  m_Enabled: 1
  m_EditorHideFlags: 0
  m_Script: {fileID: 11500000, guid: 1ca002da428252441b92f28d83c8a65f, type: 3}
  m_Name: 
  m_EditorClassIdentifier: 
  m_Shape:
    rid: 3662899895478255619
  m_Size: {x: 1, y: 1, z: 1}
  m_Rotation: {x: 0, y: 0, z: 0, w: 1}
  m_PivotLocation: 1
  m_PivotPosition: {x: 0, y: 0, z: 0}
  m_UnmodifiedMeshVersion: 17
  m_ShapeBox:
    m_Center: {x: 0.5, y: 0.5, z: 0.5}
    m_Extent: {x: 0.5, y: 0.5, z: 0.5}
  references:
    version: 2
    RefIds:
    - rid: 3662899895478255619
      type: {class: Cube, ns: UnityEngine.ProBuilder.Shapes, asm: Unity.ProBuilder}
--- !u!23 &3779813446802957599
MeshRenderer:
  m_ObjectHideFlags: 0
  m_CorrespondingSourceObject: {fileID: 0}
  m_PrefabInstance: {fileID: 0}
  m_PrefabAsset: {fileID: 0}
  m_GameObject: {fileID: 3779813446802957595}
  m_Enabled: 1
  m_CastShadows: 1
  m_ReceiveShadows: 1
  m_DynamicOccludee: 1
  m_StaticShadowCaster: 0
  m_MotionVectors: 1
  m_LightProbeUsage: 1
  m_ReflectionProbeUsage: 1
  m_RayTracingMode: 2
  m_RayTraceProcedural: 0
  m_RenderingLayerMask: 1
  m_RendererPriority: 0
  m_Materials:
  - {fileID: 2100000, guid: c22777d6e868e4f2fb421913386b154e, type: 2}
  m_StaticBatchInfo:
    firstSubMesh: 0
    subMeshCount: 0
  m_StaticBatchRoot: {fileID: 0}
  m_ProbeAnchor: {fileID: 0}
  m_LightProbeVolumeOverride: {fileID: 0}
  m_ScaleInLightmap: 1
  m_ReceiveGI: 1
  m_PreserveUVs: 0
  m_IgnoreNormalsForChartDetection: 0
  m_ImportantGI: 0
  m_StitchLightmapSeams: 1
  m_SelectedEditorRenderState: 2
  m_MinimumChartSize: 4
  m_AutoUVMaxDistance: 0.5
  m_AutoUVMaxAngle: 89
  m_LightmapParameters: {fileID: 0}
  m_SortingLayerID: 0
  m_SortingLayer: 0
  m_SortingOrder: 0
  m_AdditionalVertexStreams: {fileID: 0}
--- !u!33 &3779813446802957598
MeshFilter:
  m_ObjectHideFlags: 0
  m_CorrespondingSourceObject: {fileID: 0}
  m_PrefabInstance: {fileID: 0}
  m_PrefabAsset: {fileID: 0}
  m_GameObject: {fileID: 3779813446802957595}
  m_Mesh: {fileID: 0}
--- !u!64 &3779813446802957593
MeshCollider:
  m_ObjectHideFlags: 0
  m_CorrespondingSourceObject: {fileID: 0}
  m_PrefabInstance: {fileID: 0}
  m_PrefabAsset: {fileID: 0}
  m_GameObject: {fileID: 3779813446802957595}
  m_Material: {fileID: 0}
  m_IsTrigger: 0
  m_Enabled: 1
  serializedVersion: 4
  m_Convex: 0
  m_CookingOptions: 30
  m_Mesh: {fileID: 0}
--- !u!1 &3779813447019597996
GameObject:
  m_ObjectHideFlags: 0
  m_CorrespondingSourceObject: {fileID: 0}
  m_PrefabInstance: {fileID: 0}
  m_PrefabAsset: {fileID: 0}
  serializedVersion: 6
  m_Component:
  - component: {fileID: 3779813447019597990}
  - component: {fileID: 3779813447019597985}
  - component: {fileID: 3779813447019597984}
  - component: {fileID: 3779813447019597987}
  - component: {fileID: 3779813447019597986}
  - component: {fileID: 3779813447019597997}
  m_Layer: 0
  m_Name: Chest_2
  m_TagString: Untagged
  m_Icon: {fileID: 0}
  m_NavMeshLayer: 0
  m_StaticEditorFlags: 0
  m_IsActive: 1
--- !u!4 &3779813447019597990
Transform:
  m_ObjectHideFlags: 0
  m_CorrespondingSourceObject: {fileID: 0}
  m_PrefabInstance: {fileID: 0}
  m_PrefabAsset: {fileID: 0}
  m_GameObject: {fileID: 3779813447019597996}
  m_LocalRotation: {x: 0, y: 0, z: 0, w: 1}
  m_LocalPosition: {x: 0, y: 1, z: 0}
  m_LocalScale: {x: 1, y: 1, z: 1}
  m_ConstrainProportionsScale: 0
  m_Children:
  - {fileID: 3779813446802957592}
  m_Father: {fileID: 0}
  m_RootOrder: 0
  m_LocalEulerAnglesHint: {x: 0, y: 0, z: 0}
--- !u!114 &3779813447019597985
MonoBehaviour:
  m_ObjectHideFlags: 0
  m_CorrespondingSourceObject: {fileID: 0}
  m_PrefabInstance: {fileID: 0}
  m_PrefabAsset: {fileID: 0}
  m_GameObject: {fileID: 3779813447019597996}
  m_Enabled: 1
  m_EditorHideFlags: 0
  m_Script: {fileID: 11500000, guid: 8233d90336aea43098adf6dbabd606a2, type: 3}
  m_Name: 
  m_EditorClassIdentifier: 
  m_MeshFormatVersion: 2
  m_Faces:
  - m_Indexes: 000000000100000002000000010000000300000002000000
    m_SmoothingGroup: 0
    m_Uv:
      m_UseWorldSpace: 0
      m_FlipU: 0
      m_FlipV: 0
      m_SwapUV: 0
      m_Fill: 1
      m_Scale: {x: 1, y: 1}
      m_Offset: {x: 0, y: 0}
      m_Rotation: 0
      m_Anchor: 9
    m_Material: {fileID: 0}
    m_SubmeshIndex: 0
    m_ManualUV: 0
    elementGroup: -1
    m_TextureGroup: -1
  - m_Indexes: 040000000500000006000000050000000700000006000000
    m_SmoothingGroup: 0
    m_Uv:
      m_UseWorldSpace: 0
      m_FlipU: 0
      m_FlipV: 0
      m_SwapUV: 0
      m_Fill: 1
      m_Scale: {x: 1, y: 1}
      m_Offset: {x: 0, y: 0}
      m_Rotation: 0
      m_Anchor: 9
    m_Material: {fileID: 0}
    m_SubmeshIndex: 0
    m_ManualUV: 0
    elementGroup: -1
    m_TextureGroup: -1
  - m_Indexes: 08000000090000000a000000090000000b0000000a000000
    m_SmoothingGroup: 0
    m_Uv:
      m_UseWorldSpace: 0
      m_FlipU: 0
      m_FlipV: 0
      m_SwapUV: 0
      m_Fill: 1
      m_Scale: {x: 1, y: 1}
      m_Offset: {x: 0, y: 0}
      m_Rotation: 0
      m_Anchor: 9
    m_Material: {fileID: 0}
    m_SubmeshIndex: 0
    m_ManualUV: 0
    elementGroup: -1
    m_TextureGroup: -1
  - m_Indexes: 0c0000000d0000000e0000000d0000000f0000000e000000
    m_SmoothingGroup: 0
    m_Uv:
      m_UseWorldSpace: 0
      m_FlipU: 0
      m_FlipV: 0
      m_SwapUV: 0
      m_Fill: 1
      m_Scale: {x: 1, y: 1}
      m_Offset: {x: 0, y: 0}
      m_Rotation: 0
      m_Anchor: 9
    m_Material: {fileID: 0}
    m_SubmeshIndex: 0
    m_ManualUV: 0
    elementGroup: -1
    m_TextureGroup: -1
  - m_Indexes: 100000001100000012000000110000001300000012000000
    m_SmoothingGroup: 0
    m_Uv:
      m_UseWorldSpace: 0
      m_FlipU: 0
      m_FlipV: 0
      m_SwapUV: 0
      m_Fill: 1
      m_Scale: {x: 1, y: 1}
      m_Offset: {x: 0, y: 0}
      m_Rotation: 0
      m_Anchor: 9
    m_Material: {fileID: 0}
    m_SubmeshIndex: 0
    m_ManualUV: 0
    elementGroup: -1
    m_TextureGroup: -1
  - m_Indexes: 140000001500000016000000150000001700000016000000
    m_SmoothingGroup: 0
    m_Uv:
      m_UseWorldSpace: 0
      m_FlipU: 0
      m_FlipV: 0
      m_SwapUV: 0
      m_Fill: 1
      m_Scale: {x: 1, y: 1}
      m_Offset: {x: 0, y: 0}
      m_Rotation: 0
      m_Anchor: 9
    m_Material: {fileID: 0}
    m_SubmeshIndex: 0
    m_ManualUV: 0
    elementGroup: -1
    m_TextureGroup: -1
  - m_Indexes: 18000000190000001a000000190000001b0000001a000000
    m_SmoothingGroup: 0
    m_Uv:
      m_UseWorldSpace: 0
      m_FlipU: 0
      m_FlipV: 0
      m_SwapUV: 0
      m_Fill: 1
      m_Scale: {x: 1, y: 1}
      m_Offset: {x: 0, y: 0}
      m_Rotation: 0
      m_Anchor: 9
    m_Material: {fileID: 0}
    m_SubmeshIndex: 0
    m_ManualUV: 0
    elementGroup: -1
    m_TextureGroup: -1
  - m_Indexes: 1c0000001d0000001e0000001d0000001f0000001e000000
    m_SmoothingGroup: 0
    m_Uv:
      m_UseWorldSpace: 0
      m_FlipU: 0
      m_FlipV: 0
      m_SwapUV: 0
      m_Fill: 1
      m_Scale: {x: 1, y: 1}
      m_Offset: {x: 0, y: 0}
      m_Rotation: 0
      m_Anchor: 9
    m_Material: {fileID: 0}
    m_SubmeshIndex: 0
    m_ManualUV: 0
    elementGroup: -1
    m_TextureGroup: -1
  - m_Indexes: 200000002100000022000000210000002300000022000000
    m_SmoothingGroup: 0
    m_Uv:
      m_UseWorldSpace: 0
      m_FlipU: 0
      m_FlipV: 0
      m_SwapUV: 0
      m_Fill: 1
      m_Scale: {x: 1, y: 1}
      m_Offset: {x: 0, y: 0}
      m_Rotation: 0
      m_Anchor: 9
    m_Material: {fileID: 0}
    m_SubmeshIndex: 0
    m_ManualUV: 0
    elementGroup: -1
    m_TextureGroup: -1
  - m_Indexes: 240000002500000026000000250000002700000026000000
    m_SmoothingGroup: 0
    m_Uv:
      m_UseWorldSpace: 0
      m_FlipU: 0
      m_FlipV: 0
      m_SwapUV: 0
      m_Fill: 1
      m_Scale: {x: 1, y: 1}
      m_Offset: {x: 0, y: 0}
      m_Rotation: 0
      m_Anchor: 9
    m_Material: {fileID: 0}
    m_SubmeshIndex: 0
    m_ManualUV: 0
    elementGroup: -1
    m_TextureGroup: -1
  - m_Indexes: 28000000290000002a000000290000002b0000002a000000
    m_SmoothingGroup: 0
    m_Uv:
      m_UseWorldSpace: 0
      m_FlipU: 0
      m_FlipV: 0
      m_SwapUV: 0
      m_Fill: 1
      m_Scale: {x: 1, y: 1}
      m_Offset: {x: 0, y: 0}
      m_Rotation: 0
      m_Anchor: 9
    m_Material: {fileID: 0}
    m_SubmeshIndex: 0
    m_ManualUV: 0
    elementGroup: -1
    m_TextureGroup: -1
  - m_Indexes: 2c0000002d0000002e0000002d0000002f0000002e000000
    m_SmoothingGroup: 0
    m_Uv:
      m_UseWorldSpace: 0
      m_FlipU: 0
      m_FlipV: 0
      m_SwapUV: 0
      m_Fill: 1
      m_Scale: {x: 1, y: 1}
      m_Offset: {x: 0, y: 0}
      m_Rotation: 0
      m_Anchor: 9
    m_Material: {fileID: 0}
    m_SubmeshIndex: 0
    m_ManualUV: 0
    elementGroup: -1
    m_TextureGroup: -1
  - m_Indexes: 300000003100000032000000310000003300000032000000
    m_SmoothingGroup: 0
    m_Uv:
      m_UseWorldSpace: 0
      m_FlipU: 0
      m_FlipV: 0
      m_SwapUV: 0
      m_Fill: 1
      m_Scale: {x: 1, y: 1}
      m_Offset: {x: 0, y: 0}
      m_Rotation: 0
      m_Anchor: 9
    m_Material: {fileID: 0}
    m_SubmeshIndex: 0
    m_ManualUV: 0
    elementGroup: -1
    m_TextureGroup: -1
  - m_Indexes: 340000003500000036000000350000003700000036000000
    m_SmoothingGroup: 0
    m_Uv:
      m_UseWorldSpace: 0
      m_FlipU: 0
      m_FlipV: 0
      m_SwapUV: 0
      m_Fill: 1
      m_Scale: {x: 1, y: 1}
      m_Offset: {x: 0, y: 0}
      m_Rotation: 0
      m_Anchor: 9
    m_Material: {fileID: 0}
    m_SubmeshIndex: 0
    m_ManualUV: 0
    elementGroup: -1
    m_TextureGroup: -1
  - m_Indexes: 38000000390000003a000000390000003b0000003a000000
    m_SmoothingGroup: 0
    m_Uv:
      m_UseWorldSpace: 0
      m_FlipU: 0
      m_FlipV: 0
      m_SwapUV: 0
      m_Fill: 1
      m_Scale: {x: 1, y: 1}
      m_Offset: {x: 0, y: 0}
      m_Rotation: 0
      m_Anchor: 9
    m_Material: {fileID: 0}
    m_SubmeshIndex: 0
    m_ManualUV: 0
    elementGroup: -1
    m_TextureGroup: -1
  - m_Indexes: 3c0000003d0000003e0000003d0000003f0000003e000000
    m_SmoothingGroup: 0
    m_Uv:
      m_UseWorldSpace: 0
      m_FlipU: 0
      m_FlipV: 0
      m_SwapUV: 0
      m_Fill: 1
      m_Scale: {x: 1, y: 1}
      m_Offset: {x: 0, y: 0}
      m_Rotation: 0
      m_Anchor: 9
    m_Material: {fileID: 0}
    m_SubmeshIndex: 0
    m_ManualUV: 0
    elementGroup: -1
    m_TextureGroup: -1
  - m_Indexes: 400000004100000042000000410000004300000042000000
    m_SmoothingGroup: 0
    m_Uv:
      m_UseWorldSpace: 0
      m_FlipU: 0
      m_FlipV: 0
      m_SwapUV: 0
      m_Fill: 1
      m_Scale: {x: 1, y: 1}
      m_Offset: {x: 0, y: 0}
      m_Rotation: 0
      m_Anchor: 9
    m_Material: {fileID: 0}
    m_SubmeshIndex: 0
    m_ManualUV: 0
    elementGroup: -1
    m_TextureGroup: -1
  - m_Indexes: 440000004500000046000000450000004700000046000000
    m_SmoothingGroup: 0
    m_Uv:
      m_UseWorldSpace: 0
      m_FlipU: 0
      m_FlipV: 0
      m_SwapUV: 0
      m_Fill: 1
      m_Scale: {x: 1, y: 1}
      m_Offset: {x: 0, y: 0}
      m_Rotation: 0
      m_Anchor: 9
    m_Material: {fileID: 0}
    m_SubmeshIndex: 0
    m_ManualUV: 0
    elementGroup: -1
    m_TextureGroup: -1
  m_SharedVertices:
  - m_Vertices: 000000000d00000016000000
  - m_Vertices: 010000000400000017000000
  - m_Vertices: 020000000f000000180000001d000000
  - m_Vertices: 100000003a0000003f000000
  - m_Vertices: 2a0000002f000000380000003d000000
  - m_Vertices: 1a0000001f000000280000002d000000
  - m_Vertices: 03000000060000001900000020000000
  - m_Vertices: 110000003b00000042000000
  - m_Vertices: 2b000000320000003900000040000000
  - m_Vertices: 1b000000220000002900000030000000
  - m_Vertices: 050000000800000015000000
  - m_Vertices: 070000000a0000002100000024000000
  - m_Vertices: 130000004300000046000000
  - m_Vertices: 33000000360000004100000044000000
  - m_Vertices: 23000000260000003100000034000000
  - m_Vertices: 090000000c00000014000000
  - m_Vertices: 0b0000000e0000001c00000025000000
  - m_Vertices: 120000003e00000047000000
  - m_Vertices: 2e000000370000003c00000045000000
  - m_Vertices: 1e000000270000002c00000035000000
  m_SharedTextures: []
  m_Positions:
  - {x: -2, y: -1, z: 1}
  - {x: 0, y: -1, z: 1}
  - {x: -2, y: 0, z: 1}
  - {x: 0, y: 0, z: 1}
  - {x: 0, y: -1, z: 1}
  - {x: 0, y: -1, z: 0}
  - {x: 0, y: 0, z: 1}
  - {x: 0, y: 0, z: 0}
  - {x: 0, y: -1, z: 0}
  - {x: -2, y: -1, z: 0}
  - {x: 0, y: 0, z: 0}
  - {x: -2, y: 0, z: 0}
  - {x: -2, y: -1, z: 0}
  - {x: -2, y: -1, z: 1}
  - {x: -2, y: 0, z: 0}
  - {x: -2, y: 0, z: 1}
  - {x: -1.9123416, y: -0.8575779, z: 0.900586}
  - {x: -0.087658405, y: -0.8575779, z: 0.900586}
  - {x: -1.9123416, y: -0.8575779, z: 0.09941402}
  - {x: -0.087658405, y: -0.8575779, z: 0.09941402}
  - {x: -2, y: -1, z: 0}
  - {x: 0, y: -1, z: 0}
  - {x: -2, y: -1, z: 1}
  - {x: 0, y: -1, z: 1}
  - {x: -2, y: 0, z: 1}
  - {x: 0, y: 0, z: 1}
  - {x: -1.9123416, y: 0, z: 0.900586}
  - {x: -0.087658405, y: 0, z: 0.900586}
  - {x: -2, y: 0, z: 0}
  - {x: -2, y: 0, z: 1}
  - {x: -1.9123416, y: 0, z: 0.09941402}
  - {x: -1.9123416, y: 0, z: 0.900586}
  - {x: 0, y: 0, z: 1}
  - {x: 0, y: 0, z: 0}
  - {x: -0.087658405, y: 0, z: 0.900586}
  - {x: -0.087658405, y: 0, z: 0.09941402}
  - {x: 0, y: 0, z: 0}
  - {x: -2, y: 0, z: 0}
  - {x: -0.087658405, y: 0, z: 0.09941402}
  - {x: -1.9123416, y: 0, z: 0.09941402}
  - {x: -1.9123416, y: 0, z: 0.900586}
  - {x: -0.087658405, y: 0, z: 0.900586}
  - {x: -1.9123416, y: -0.5829092, z: 0.900586}
  - {x: -0.087658405, y: -0.5829092, z: 0.900586}
  - {x: -1.9123416, y: 0, z: 0.09941402}
  - {x: -1.9123416, y: 0, z: 0.900586}
  - {x: -1.9123416, y: -0.5829092, z: 0.09941402}
  - {x: -1.9123416, y: -0.5829092, z: 0.900586}
  - {x: -0.087658405, y: 0, z: 0.900586}
  - {x: -0.087658405, y: 0, z: 0.09941402}
  - {x: -0.087658405, y: -0.5829092, z: 0.900586}
  - {x: -0.087658405, y: -0.5829092, z: 0.09941402}
  - {x: -0.087658405, y: 0, z: 0.09941402}
  - {x: -1.9123416, y: 0, z: 0.09941402}
  - {x: -0.087658405, y: -0.5829092, z: 0.09941402}
  - {x: -1.9123416, y: -0.5829092, z: 0.09941402}
  - {x: -1.9123416, y: -0.5829092, z: 0.900586}
  - {x: -0.087658405, y: -0.5829092, z: 0.900586}
  - {x: -1.9123416, y: -0.8575779, z: 0.900586}
  - {x: -0.087658405, y: -0.8575779, z: 0.900586}
  - {x: -1.9123416, y: -0.5829092, z: 0.09941402}
  - {x: -1.9123416, y: -0.5829092, z: 0.900586}
  - {x: -1.9123416, y: -0.8575779, z: 0.09941402}
  - {x: -1.9123416, y: -0.8575779, z: 0.900586}
  - {x: -0.087658405, y: -0.5829092, z: 0.900586}
  - {x: -0.087658405, y: -0.5829092, z: 0.09941402}
  - {x: -0.087658405, y: -0.8575779, z: 0.900586}
  - {x: -0.087658405, y: -0.8575779, z: 0.09941402}
  - {x: -0.087658405, y: -0.5829092, z: 0.09941402}
  - {x: -1.9123416, y: -0.5829092, z: 0.09941402}
  - {x: -0.087658405, y: -0.8575779, z: 0.09941402}
  - {x: -1.9123416, y: -0.8575779, z: 0.09941402}
  m_Textures0:
  - {x: 2, y: -1}
  - {x: 0, y: -1}
  - {x: 2, y: 0}
  - {x: 0, y: 0}
  - {x: 1, y: -1}
  - {x: 0, y: -1}
  - {x: 1, y: 0}
  - {x: 0, y: 0}
  - {x: 0, y: -1}
  - {x: -2, y: -1}
  - {x: 0, y: 0}
  - {x: -2, y: 0}
  - {x: -0, y: -1}
  - {x: -1, y: -1}
  - {x: 0, y: 0}
  - {x: -1, y: 0}
  - {x: -1.9123416, y: 0.900586}
  - {x: -0.087658405, y: 0.900586}
  - {x: -1.9123416, y: 0.09941402}
  - {x: -0.087658405, y: 0.09941402}
  - {x: 2, y: 0}
  - {x: 0, y: 0}
  - {x: 2, y: 1}
  - {x: 0, y: 1}
  - {x: -2, y: 1}
  - {x: 0, y: 1}
  - {x: -1.9123416, y: 0.900586}
  - {x: -0.087658405, y: 0.900586}
  - {x: -2, y: 0}
  - {x: -2, y: 1}
  - {x: -1.9123416, y: 0.09941402}
  - {x: -1.9123416, y: 0.900586}
  - {x: 0, y: 1}
  - {x: 0, y: 0}
  - {x: -0.087658405, y: 0.900586}
  - {x: -0.087658405, y: 0.09941402}
  - {x: 0, y: 0}
  - {x: -2, y: 0}
  - {x: -0.087658405, y: 0.09941402}
  - {x: -1.9123416, y: 0.09941402}
  - {x: -1.9123416, y: 0}
  - {x: -0.087658405, y: 0}
  - {x: -1.9123416, y: -0.5829092}
  - {x: -0.087658405, y: -0.5829092}
  - {x: 0.09941402, y: 0}
  - {x: 0.900586, y: 0}
  - {x: 0.09941402, y: -0.5829092}
  - {x: 0.900586, y: -0.5829092}
  - {x: -0.900586, y: 0}
  - {x: -0.09941402, y: 0}
  - {x: -0.900586, y: -0.5829092}
  - {x: -0.09941402, y: -0.5829092}
  - {x: 0.087658405, y: 0}
  - {x: 1.9123416, y: 0}
  - {x: 0.087658405, y: -0.5829092}
  - {x: 1.9123416, y: -0.5829092}
  - {x: -1.9123416, y: -0.5829092}
  - {x: -0.087658405, y: -0.5829092}
  - {x: -1.9123416, y: -0.8575779}
  - {x: -0.087658405, y: -0.8575779}
  - {x: 0.09941402, y: -0.5829092}
  - {x: 0.900586, y: -0.5829092}
  - {x: 0.09941402, y: -0.8575779}
  - {x: 0.900586, y: -0.8575779}
  - {x: -0.900586, y: -0.5829092}
  - {x: -0.09941402, y: -0.5829092}
  - {x: -0.900586, y: -0.8575779}
  - {x: -0.09941402, y: -0.8575779}
  - {x: 0.087658405, y: -0.5829092}
  - {x: 1.9123416, y: -0.5829092}
  - {x: 0.087658405, y: -0.8575779}
  - {x: 1.9123416, y: -0.8575779}
  m_Textures2: []
  m_Textures3: []
  m_Tangents:
  - {x: -1, y: 0, z: 0, w: -1}
  - {x: -1, y: 0, z: 0, w: -1}
  - {x: -1, y: 0, z: 0, w: -1}
  - {x: -1, y: 0, z: 0, w: -1}
  - {x: 0, y: 0, z: 1, w: -1}
  - {x: 0, y: 0, z: 1, w: -1}
  - {x: 0, y: 0, z: 1, w: -1}
  - {x: 0, y: 0, z: 1, w: -1}
  - {x: 1, y: 0, z: 0, w: -1}
  - {x: 1, y: 0, z: 0, w: -1}
  - {x: 1, y: 0, z: 0, w: -1}
  - {x: 1, y: 0, z: 0, w: -1}
  - {x: 0, y: 0, z: -1, w: -1}
  - {x: 0, y: 0, z: -1, w: -1}
  - {x: 0, y: 0, z: -1, w: -1}
  - {x: 0, y: 0, z: -1, w: -1}
  - {x: 1, y: 0, z: 0, w: -1}
  - {x: 1, y: 0, z: 0, w: -1}
  - {x: 1, y: 0, z: 0, w: -1}
  - {x: 1, y: 0, z: 0, w: -1}
  - {x: -1, y: 0, z: 0, w: -1}
  - {x: -1, y: 0, z: 0, w: -1}
  - {x: -1, y: 0, z: 0, w: -1}
  - {x: -1, y: 0, z: 0, w: -1}
  - {x: 1, y: 0, z: 0, w: -1}
  - {x: 1, y: 0, z: 0, w: -1}
  - {x: 1, y: 0, z: 0, w: -1}
  - {x: 1, y: 0, z: 0, w: -1}
  - {x: 1, y: 0, z: 0, w: -1}
  - {x: 1, y: 0, z: 0, w: -1}
  - {x: 1, y: 0, z: 0, w: -1}
  - {x: 1, y: 0, z: 0, w: -1}
  - {x: 1, y: 0, z: 0, w: -1}
  - {x: 1, y: 0, z: 0, w: -1}
  - {x: 1, y: 0, z: 0, w: -1}
  - {x: 1, y: 0, z: 0, w: -1}
  - {x: 1, y: 0, z: 0, w: -1}
  - {x: 1, y: 0, z: 0, w: -1}
  - {x: 1, y: 0, z: 0, w: -1}
  - {x: 1, y: 0, z: 0, w: -1}
  - {x: 1, y: 0, z: 0, w: -1}
  - {x: 1, y: 0, z: 0, w: -1}
  - {x: 1, y: 0, z: 0, w: -1}
  - {x: 1, y: 0, z: 0, w: -1}
  - {x: 0, y: 0, z: 1, w: -1}
  - {x: 0, y: 0, z: 1, w: -1}
  - {x: 0, y: 0, z: 1, w: -1}
  - {x: 0, y: 0, z: 1, w: -1}
  - {x: 0, y: 0, z: -1, w: -1}
  - {x: 0, y: 0, z: -1, w: -1}
  - {x: 0, y: 0, z: -1, w: -1}
  - {x: 0, y: 0, z: -1, w: -1}
  - {x: -1, y: 0, z: 0, w: -1}
  - {x: -1, y: 0, z: 0, w: -1}
  - {x: -1, y: 0, z: 0, w: -1}
  - {x: -1, y: 0, z: 0, w: -1}
  - {x: 1, y: 0, z: 0, w: -1}
  - {x: 1, y: 0, z: 0, w: -1}
  - {x: 1, y: 0, z: 0, w: -1}
  - {x: 1, y: 0, z: 0, w: -1}
  - {x: 0, y: 0, z: 1, w: -1}
  - {x: 0, y: 0, z: 1, w: -1}
  - {x: 0, y: 0, z: 1, w: -1}
  - {x: 0, y: 0, z: 1, w: -1}
  - {x: 0, y: 0, z: -1, w: -1}
  - {x: 0, y: 0, z: -1, w: -1}
  - {x: 0, y: 0, z: -1, w: -1}
  - {x: 0, y: 0, z: -1, w: -1}
  - {x: -1, y: 0, z: 0, w: -1}
  - {x: -1, y: 0, z: 0, w: -1}
  - {x: -1, y: 0, z: 0, w: -1}
  - {x: -1, y: 0, z: 0, w: -1}
  m_Colors: []
  m_UnwrapParameters:
    m_HardAngle: 88
    m_PackMargin: 20
    m_AngleError: 8
    m_AreaError: 15
  m_PreserveMeshAssetOnDestroy: 0
  assetGuid: 
  m_Mesh: {fileID: 0}
  m_VersionIndex: 495
  m_IsSelectable: 1
  m_SelectedFaces: 
  m_SelectedEdges: []
  m_SelectedVertices: 
--- !u!114 &3779813447019597984
MonoBehaviour:
  m_ObjectHideFlags: 0
  m_CorrespondingSourceObject: {fileID: 0}
  m_PrefabInstance: {fileID: 0}
  m_PrefabAsset: {fileID: 0}
  m_GameObject: {fileID: 3779813447019597996}
  m_Enabled: 1
  m_EditorHideFlags: 0
  m_Script: {fileID: 11500000, guid: 1ca002da428252441b92f28d83c8a65f, type: 3}
  m_Name: 
  m_EditorClassIdentifier: 
  m_Shape:
    rid: 3662899895478255619
  m_Size: {x: 1, y: 1, z: 1}
  m_Rotation: {x: 0, y: 0, z: 0, w: 1}
  m_PivotLocation: 1
  m_PivotPosition: {x: 0, y: 0, z: 0}
  m_UnmodifiedMeshVersion: 17
  m_ShapeBox:
    m_Center: {x: 0.5, y: 0.5, z: 0.5}
    m_Extent: {x: 0.5, y: 0.5, z: 0.5}
  references:
    version: 2
    RefIds:
    - rid: 3662899895478255619
      type: {class: Cube, ns: UnityEngine.ProBuilder.Shapes, asm: Unity.ProBuilder}
--- !u!23 &3779813447019597987
MeshRenderer:
  m_ObjectHideFlags: 0
  m_CorrespondingSourceObject: {fileID: 0}
  m_PrefabInstance: {fileID: 0}
  m_PrefabAsset: {fileID: 0}
  m_GameObject: {fileID: 3779813447019597996}
  m_Enabled: 1
  m_CastShadows: 1
  m_ReceiveShadows: 1
  m_DynamicOccludee: 1
  m_StaticShadowCaster: 0
  m_MotionVectors: 1
  m_LightProbeUsage: 1
  m_ReflectionProbeUsage: 1
  m_RayTracingMode: 2
  m_RayTraceProcedural: 0
  m_RenderingLayerMask: 1
  m_RendererPriority: 0
  m_Materials:
  - {fileID: 2100000, guid: c22777d6e868e4f2fb421913386b154e, type: 2}
  m_StaticBatchInfo:
    firstSubMesh: 0
    subMeshCount: 0
  m_StaticBatchRoot: {fileID: 0}
  m_ProbeAnchor: {fileID: 0}
  m_LightProbeVolumeOverride: {fileID: 0}
  m_ScaleInLightmap: 1
  m_ReceiveGI: 1
  m_PreserveUVs: 0
  m_IgnoreNormalsForChartDetection: 0
  m_ImportantGI: 0
  m_StitchLightmapSeams: 1
  m_SelectedEditorRenderState: 2
  m_MinimumChartSize: 4
  m_AutoUVMaxDistance: 0.5
  m_AutoUVMaxAngle: 89
  m_LightmapParameters: {fileID: 0}
  m_SortingLayerID: 0
  m_SortingLayer: 0
  m_SortingOrder: 0
  m_AdditionalVertexStreams: {fileID: 0}
--- !u!33 &3779813447019597986
MeshFilter:
  m_ObjectHideFlags: 0
  m_CorrespondingSourceObject: {fileID: 0}
  m_PrefabInstance: {fileID: 0}
  m_PrefabAsset: {fileID: 0}
  m_GameObject: {fileID: 3779813447019597996}
  m_Mesh: {fileID: 0}
--- !u!64 &3779813447019597997
MeshCollider:
  m_ObjectHideFlags: 0
  m_CorrespondingSourceObject: {fileID: 0}
  m_PrefabInstance: {fileID: 0}
  m_PrefabAsset: {fileID: 0}
  m_GameObject: {fileID: 3779813447019597996}
  m_Material: {fileID: 0}
  m_IsTrigger: 0
  m_Enabled: 1
  serializedVersion: 4
  m_Convex: 0
  m_CookingOptions: 30
  m_Mesh: {fileID: 0}
